Warning: variables __flops__ or __params__ are already defined for the moduleConv2d ptflops can affect your code!
Warning: variables __flops__ or __params__ are already defined for the moduleReLU ptflops can affect your code!
Warning: variables __flops__ or __params__ are already defined for the moduleMaxPool2d ptflops can affect your code!
Warning: variables __flops__ or __params__ are already defined for the moduleConv2d ptflops can affect your code!
Warning: variables __flops__ or __params__ are already defined for the moduleReLU ptflops can affect your code!
Warning: variables __flops__ or __params__ are already defined for the moduleMaxPool2d ptflops can affect your code!
Warning: variables __flops__ or __params__ are already defined for the moduleConv2d ptflops can affect your code!
Warning: variables __flops__ or __params__ are already defined for the moduleReLU ptflops can affect your code!
Warning: variables __flops__ or __params__ are already defined for the moduleConv2d ptflops can affect your code!
Warning: variables __flops__ or __params__ are already defined for the moduleReLU ptflops can affect your code!
Warning: variables __flops__ or __params__ are already defined for the moduleMaxPool2d ptflops can affect your code!
Warning: variables __flops__ or __params__ are already defined for the moduleConv2d ptflops can affect your code!
Warning: variables __flops__ or __params__ are already defined for the moduleReLU ptflops can affect your code!
Warning: variables __flops__ or __params__ are already defined for the moduleConv2d ptflops can affect your code!
Warning: variables __flops__ or __params__ are already defined for the moduleReLU ptflops can affect your code!
Warning: variables __flops__ or __params__ are already defined for the moduleMaxPool2d ptflops can affect your code!
Warning: variables __flops__ or __params__ are already defined for the moduleConv2d ptflops can affect your code!
Warning: variables __flops__ or __params__ are already defined for the moduleReLU ptflops can affect your code!
Warning: variables __flops__ or __params__ are already defined for the moduleConv2d ptflops can affect your code!
Warning: variables __flops__ or __params__ are already defined for the moduleReLU ptflops can affect your code!
Warning: variables __flops__ or __params__ are already defined for the moduleMaxPool2d ptflops can affect your code!
Warning: variables __flops__ or __params__ are already defined for the moduleAdaptiveAvgPool2d ptflops can affect your code!
Warning: module Dropout is treated as a zero-op.
Warning: module VGGCustom is treated as a zero-op.
Warning! No positional inputs found for a module, assuming batch size is 1.
VGGCustom(
  142.084 M, 106.940% Params, 7.606 GMac, 100.000% MACs, 
  (features): Sequential(
    9.22 M, 6.940% Params, 3.803 GMac, 50.000% MACs, 
    (0): Conv2d(0.002 M, 0.001% Params, 0.09 GMac, 1.182% MACs, 3, 64, kernel_size=(3, 3), stride=(1, 1), padding=(1, 1))
    (1): ReLU(0.0 M, 0.000% Params, 0.003 GMac, 0.042% MACs, inplace=True)
    (2): MaxPool2d(0.0 M, 0.000% Params, 0.003 GMac, 0.042% MACs, kernel_size=2, stride=2, padding=0, dilation=1, ceil_mode=False)
    (3): Conv2d(0.074 M, 0.056% Params, 0.926 GMac, 12.181% MACs, 64, 128, kernel_size=(3, 3), stride=(1, 1), padding=(1, 1))
    (4): ReLU(0.0 M, 0.000% Params, 0.002 GMac, 0.021% MACs, inplace=True)
    (5): MaxPool2d(0.0 M, 0.000% Params, 0.002 GMac, 0.021% MACs, kernel_size=2, stride=2, padding=0, dilation=1, ceil_mode=False)
    (6): Conv2d(0.295 M, 0.222% Params, 0.926 GMac, 12.170% MACs, 128, 256, kernel_size=(3, 3), stride=(1, 1), padding=(1, 1))
    (7): ReLU(0.0 M, 0.000% Params, 0.001 GMac, 0.011% MACs, inplace=True)
    (8): Conv2d(0.59 M, 0.444% Params, 1.85 GMac, 24.330% MACs, 256, 256, kernel_size=(3, 3), stride=(1, 1), padding=(1, 1))
    (9): ReLU(0.0 M, 0.000% Params, 0.0 GMac, 0.000% MACs, inplace=True)
    (10): MaxPool2d(0.0 M, 0.000% Params, 0.0 GMac, 0.000% MACs, kernel_size=2, stride=2, padding=0, dilation=1, ceil_mode=False)
    (11): Conv2d(1.18 M, 0.888% Params, 0.0 GMac, 0.000% MACs, 256, 512, kernel_size=(3, 3), stride=(1, 1), padding=(1, 1))
    (12): ReLU(0.0 M, 0.000% Params, 0.0 GMac, 0.000% MACs, inplace=True)
    (13): Conv2d(2.36 M, 1.776% Params, 0.0 GMac, 0.000% MACs, 512, 512, kernel_size=(3, 3), stride=(1, 1), padding=(1, 1))
    (14): ReLU(0.0 M, 0.000% Params, 0.0 GMac, 0.000% MACs, inplace=True)
    (15): MaxPool2d(0.0 M, 0.000% Params, 0.0 GMac, 0.000% MACs, kernel_size=2, stride=2, padding=0, dilation=1, ceil_mode=False)
    (16): Conv2d(2.36 M, 1.776% Params, 0.0 GMac, 0.000% MACs, 512, 512, kernel_size=(3, 3), stride=(1, 1), padding=(1, 1))
    (17): ReLU(0.0 M, 0.000% Params, 0.0 GMac, 0.000% MACs, inplace=True)
    (18): Conv2d(2.36 M, 1.776% Params, 0.0 GMac, 0.000% MACs, 512, 512, kernel_size=(3, 3), stride=(1, 1), padding=(1, 1))
    (19): ReLU(0.0 M, 0.000% Params, 0.0 GMac, 0.000% MACs, inplace=True)
    (20): MaxPool2d(0.0 M, 0.000% Params, 0.0 GMac, 0.000% MACs, kernel_size=2, stride=2, padding=0, dilation=1, ceil_mode=False)
  )
  (avgpool): AdaptiveAvgPool2d(0.0 M, 0.000% Params, 0.0 GMac, 0.000% MACs, output_size=(7, 7))
  (classifier): Sequential(
    123.643 M, 93.060% Params, 0.0 GMac, 0.000% MACs, 
    (0): Linear(102.765 M, 77.346% Params, 0.0 GMac, 0.000% MACs, in_features=25088, out_features=4096, bias=True)
    (1): ReLU(0.0 M, 0.000% Params, 0.0 GMac, 0.000% MACs, inplace=True)
    (2): Dropout(0.0 M, 0.000% Params, 0.0 GMac, 0.000% MACs, p=0.5, inplace=False)
    (3): Linear(16.781 M, 12.631% Params, 0.0 GMac, 0.000% MACs, in_features=4096, out_features=4096, bias=True)
    (4): ReLU(0.0 M, 0.000% Params, 0.0 GMac, 0.000% MACs, inplace=True)
    (5): Dropout(0.0 M, 0.000% Params, 0.0 GMac, 0.000% MACs, p=0.5, inplace=False)
    (6): Linear(4.097 M, 3.084% Params, 0.0 GMac, 0.000% MACs, in_features=4096, out_features=1000, bias=True)
  )
  (module_list): ModuleList(
    9.22 M, 6.940% Params, 3.803 GMac, 50.000% MACs, 
    (0): Conv2d(0.002 M, 0.001% Params, 0.09 GMac, 1.182% MACs, 3, 64, kernel_size=(3, 3), stride=(1, 1), padding=(1, 1))
    (1): ReLU(0.0 M, 0.000% Params, 0.003 GMac, 0.042% MACs, inplace=True)
    (2): MaxPool2d(0.0 M, 0.000% Params, 0.003 GMac, 0.042% MACs, kernel_size=2, stride=2, padding=0, dilation=1, ceil_mode=False)
    (3): Conv2d(0.074 M, 0.056% Params, 0.926 GMac, 12.181% MACs, 64, 128, kernel_size=(3, 3), stride=(1, 1), padding=(1, 1))
    (4): ReLU(0.0 M, 0.000% Params, 0.002 GMac, 0.021% MACs, inplace=True)
    (5): MaxPool2d(0.0 M, 0.000% Params, 0.002 GMac, 0.021% MACs, kernel_size=2, stride=2, padding=0, dilation=1, ceil_mode=False)
    (6): Conv2d(0.295 M, 0.222% Params, 0.926 GMac, 12.170% MACs, 128, 256, kernel_size=(3, 3), stride=(1, 1), padding=(1, 1))
    (7): ReLU(0.0 M, 0.000% Params, 0.001 GMac, 0.011% MACs, inplace=True)
    (8): Conv2d(0.59 M, 0.444% Params, 1.85 GMac, 24.330% MACs, 256, 256, kernel_size=(3, 3), stride=(1, 1), padding=(1, 1))
    (9): ReLU(0.0 M, 0.000% Params, 0.0 GMac, 0.000% MACs, inplace=True)
    (10): MaxPool2d(0.0 M, 0.000% Params, 0.0 GMac, 0.000% MACs, kernel_size=2, stride=2, padding=0, dilation=1, ceil_mode=False)
    (11): Conv2d(1.18 M, 0.888% Params, 0.0 GMac, 0.000% MACs, 256, 512, kernel_size=(3, 3), stride=(1, 1), padding=(1, 1))
    (12): ReLU(0.0 M, 0.000% Params, 0.0 GMac, 0.000% MACs, inplace=True)
    (13): Conv2d(2.36 M, 1.776% Params, 0.0 GMac, 0.000% MACs, 512, 512, kernel_size=(3, 3), stride=(1, 1), padding=(1, 1))
    (14): ReLU(0.0 M, 0.000% Params, 0.0 GMac, 0.000% MACs, inplace=True)
    (15): MaxPool2d(0.0 M, 0.000% Params, 0.0 GMac, 0.000% MACs, kernel_size=2, stride=2, padding=0, dilation=1, ceil_mode=False)
    (16): Conv2d(2.36 M, 1.776% Params, 0.0 GMac, 0.000% MACs, 512, 512, kernel_size=(3, 3), stride=(1, 1), padding=(1, 1))
    (17): ReLU(0.0 M, 0.000% Params, 0.0 GMac, 0.000% MACs, inplace=True)
    (18): Conv2d(2.36 M, 1.776% Params, 0.0 GMac, 0.000% MACs, 512, 512, kernel_size=(3, 3), stride=(1, 1), padding=(1, 1))
    (19): ReLU(0.0 M, 0.000% Params, 0.0 GMac, 0.000% MACs, inplace=True)
    (20): MaxPool2d(0.0 M, 0.000% Params, 0.0 GMac, 0.000% MACs, kernel_size=2, stride=2, padding=0, dilation=1, ceil_mode=False)
    (21): AdaptiveAvgPool2d(0.0 M, 0.000% Params, 0.0 GMac, 0.000% MACs, output_size=(7, 7))
  )
)
Computational complexity:       7.61 GMac
Number of parameters:           132.86 M
